Lab 2: Working with the U.S. Census
…
year: The end year of the data (because we want 2013-2017, we use 2017).

variables: The variables we want to bring in as specified in a vector you create using the function c(). Note that we created variable names of our own (e.g. “nhwhite”) and we put the ACS IDs in quotes (“B03002_003”). Had we not done this, the variable names will come in as they are named in the ACS, which are not very descriptive.

state: We can filter the counties to those in a specific state. Here it is “CA” for California. If we don’t specify this, we get all counties in the United States. When we cover Census tracts in the next lab, a county filter will also be available.

survey: The specific Census survey were extracting data from. We want data from the 5-year American Community Survey, so we specify “acs5”. The ACS comes in 1-, 3-, and 5-year varieties.

Type in ? get_acs() to see the full list of options.

When you bring in a dataset, the first thing you should always do is view it just to make sure you got what you expected. You can do this directly in the console by just typing out the file name.

ca

## # A tibble: 290 x 5
##    GEOID NAME                       variable estimate   moe
##    <chr> <chr>                      <chr>       <dbl> <dbl>
##  1 06001 Alameda County, California tpopr     1629615    NA
##  2 06001 Alameda County, California nhwhite    524881   389
##  3 06001 Alameda County, California nhblk      175063  1490
##  4 06001 Alameda County, California nhasn      468356  2261
##  5 06001 Alameda County, California hisp       367041    NA
##  6 06003 Alpine County, California  tpopr        1203   179
##  7 06003 Alpine County, California  nhwhite       777   163
##  8 06003 Alpine County, California  nhblk          18    25
##  9 06003 Alpine County, California  nhasn           8    15
## 10 06003 Alpine County, California  hisp          117    58
## # … with 280 more rows
…
To see the names of variables in the dataset ca, use the names() command.

names(ca)

## [1] "GEOID"    "NAME"     "variable" "estimate" "moe"

Let’s keep GEOID, NAME, variable, and estimate from the ca dataset.

select(ca, GEOID, NAME, variable, estimate)

## # A tibble: 290 x 4
##    GEOID NAME                       variable estimate
##    <chr> <chr>                      <chr>       <dbl>
##  1 06001 Alameda County, California tpopr     1629615
##  2 06001 Alameda County, California nhwhite    524881
##  3 06001 Alameda County, California nhblk      175063
##  4 06001 Alameda County, California nhasn      468356
##  5 06001 Alameda County, California hisp       367041
##  6 06003 Alpine County, California  tpopr        1203
##  7 06003 Alpine County, California  nhwhite       777
##  8 06003 Alpine County, California  nhblk          18
##  9 06003 Alpine County, California  nhasn           8
## 10 06003 Alpine County, California  hisp          117
## # … with 280 more rows

A shortcut way of doing this is to use the : operator.

select(ca, GEOID:estimate)

## # A tibble: 290 x 4
##    GEOID NAME                       variable estimate
##    <chr> <chr>                      <chr>       <dbl>
##  1 06001 Alameda County, California tpopr     1629615
##  2 06001 Alameda County, California nhwhite    524881
##  3 06001 Alameda County, California nhblk      175063
##  4 06001 Alameda County, California nhasn      468356
##  5 06001 Alameda County, California hisp       367041
##  6 06003 Alpine County, California  tpopr        1203
##  7 06003 Alpine County, California  nhwhite       777
##  8 06003 Alpine County, California  nhblk          18
##  9 06003 Alpine County, California  nhasn           8
## 10 06003 Alpine County, California  hisp          117
## # … with 280 more rows
…
## [1] "GEOID"    "County"   "variable" "estimate"

Note that you can rename multiple variables within the same rename() command, separating each newvariablename = oldvariablename argument with a comma. For example, rename(ca1, newvariablename1 = oldvariablename1, newvariablename2 = oldvariablename2). Also note that if your variable name has spaces in between words, R will despise you. To make it happy, you’ll have to put the variable name in quotes, like newvariablename = "old variable name". I recommend never! including spaces in your variable names. Use an underline or even a period instead if you really want to separate words.

Reshape the data

Tidying up a dataset for your specific data project means following the rules outlined on page 149 of RDS: (1) Each variable must have its own column, (2) each observation must have its own row, and (3) each value must have its own cell. For the purposes of this lab, our tidy dataset should have counties as the unit of observations. The dataset nhgisfile1 looks “tidy”, but the dataset ca1 is not. Why?

We’ll need to “spread” or reshape the dataset to get it to the form we want. This will convert the dataset from long to wide. Use the function spread() and save the tidy dataset back into cacounty.

ca1 <- spread(ca1, key = variable, value = estimate)
ca1

## # A tibble: 58 x 7
##    GEOID County                            hisp  nhasn  nhblk nhwhite   tpopr
##    <chr> <chr>                            <dbl>  <dbl>  <dbl>   <dbl>   <dbl>
##  1 06001 Alameda County, California      367041 468356 175063  524881 1629615
##  2 06003 Alpine County, California          117      8     18     777    1203
##  3 06005 Amador County, California         4943    565    764   29571   37306
##  4 06007 Butte County, California         35445   9852   3282  164184  225207
##  5 06009 Calaveras County, California      5166    527    258   36932   45057
##  6 06011 Colusa County, California        12539    328    186    7800   21479
##  7 06013 Contra Costa County, California 284003 177544  93140  504818 1123678
##  8 06015 Del Norte County, California      5281    741    484   17233   27442
##  9 06017 El Dorado County, California     23279   7805   1614  145153  185015
## 10 06019 Fresno County, California       509442  96128  45217  293677  971616
## # … with 48 more rows
…
