…
```r
counties.df <- read.csv("week2data.csv")
```

The first difference between regular data frames and tibbles is how the dataset "looks."  First, the tibble.


```r
counties
```

```
## # A tibble: 58 x 8
##    GEOID name                state        hisp  nhasn  nhblk nhwhite   tpopr
##    <chr> <chr>               <chr>       <dbl>  <dbl>  <dbl>   <dbl>   <dbl>
##  1 06001 Alameda County      California 367041 468356 175063  524881 1629615
##  2 06003 Alpine County       California    117      8     18     777    1203
##  3 06005 Amador County       California   4943    565    764   29571   37306
##  4 06007 Butte County        California  35445   9852   3282  164184  225207
##  5 06009 Calaveras County    California   5166    527    258   36932   45057
##  6 06011 Colusa County       California  12539    328    186    7800   21479
##  7 06013 Contra Costa County California 284003 177544  93140  504818 1123678
##  8 06015 Del Norte County    California   5281    741    484   17233   27442
##  9 06017 El Dorado County    California  23279   7805   1614  145153  185015
## 10 06019 Fresno County       California 509442  96128  45217  293677  971616
## # … with 48 more rows
```
…
```
## [1] "GEOID"   "name"    "state"   "hisp"    "nhasn"   "nhblk"   "nhwhite"
## [8] "tpopr"
```

Let's keep *GEOID*, *name*, *hisp*, *nhasn*, *nhblk*, *nhwhite*, and *tpopr*


```r
select(counties, GEOID, name, hisp, nhasn, nhblk, nhwhite, tpopr)
```

```
## # A tibble: 58 x 7
##    GEOID name                  hisp  nhasn  nhblk nhwhite   tpopr
##    <chr> <chr>                <dbl>  <dbl>  <dbl>   <dbl>   <dbl>
##  1 06001 Alameda County      367041 468356 175063  524881 1629615
##  2 06003 Alpine County          117      8     18     777    1203
##  3 06005 Amador County         4943    565    764   29571   37306
##  4 06007 Butte County         35445   9852   3282  164184  225207
##  5 06009 Calaveras County      5166    527    258   36932   45057
##  6 06011 Colusa County        12539    328    186    7800   21479
##  7 06013 Contra Costa County 284003 177544  93140  504818 1123678
##  8 06015 Del Norte County      5281    741    484   17233   27442
##  9 06017 El Dorado County     23279   7805   1614  145153  185015
## 10 06019 Fresno County       509442  96128  45217  293677  971616
## # … with 48 more rows
```

A shortcut way of doing this is to use the `:` operator.


```r
select(counties, GEOID, name, hisp:tpopr)
```

```
## # A tibble: 58 x 7
##    GEOID name                  hisp  nhasn  nhblk nhwhite   tpopr
##    <chr> <chr>                <dbl>  <dbl>  <dbl>   <dbl>   <dbl>
##  1 06001 Alameda County      367041 468356 175063  524881 1629615
##  2 06003 Alpine County          117      8     18     777    1203
##  3 06005 Amador County         4943    565    764   29571   37306
##  4 06007 Butte County         35445   9852   3282  164184  225207
##  5 06009 Calaveras County      5166    527    258   36932   45057
##  6 06011 Colusa County        12539    328    186    7800   21479
##  7 06013 Contra Costa County 284003 177544  93140  504818 1123678
##  8 06015 Del Norte County      5281    741    484   17233   27442
##  9 06017 El Dorado County     23279   7805   1614  145153  185015
## 10 06019 Fresno County       509442  96128  45217  293677  971616
## # … with 48 more rows
```
…
<div style="margin-bottom:25px;">
</div>
### **Arrange**
\

We use the `arrange()` function to sort a data frame by one or more variables. You might want to do this to get a sense of which cases have the highest or lowest values in your data set or sort counties by their name. For example, let's sort in ascending order counties by proportion Hispanic.


```r
arrange(counties1, phisp)
```

```
## # A tibble: 58 x 12
##    GEOID name   hisp nhasn nhblk nhwhite  tpopr pnhwhite  pnhasn  pnhblk  phisp
##    <chr> <chr> <dbl> <dbl> <dbl>   <dbl>  <dbl>    <dbl>   <dbl>   <dbl>  <dbl>
##  1 06105 Trin…   937   141   104   10796  13037    0.828 0.0108  0.00798 0.0719
##  2 06063 Plum…  1599   148   160   15640  18724    0.835 0.00790 0.00855 0.0854
##  3 06057 Neva…  9109  1090   541   84389  98838    0.854 0.0110  0.00547 0.0922
##  4 06089 Shas… 17218  5195  1951  143919 178919    0.804 0.0290  0.0109  0.0962
##  5 06003 Alpi…   117     8    18     777   1203    0.646 0.00665 0.0150  0.0973
##  6 06091 Sier…   290     0     4    2509   2885    0.870 0       0.00139 0.101 
##  7 06043 Mari…  1870   168   215   14309  17658    0.810 0.00951 0.0122  0.106 
##  8 06023 Humb… 14986  3886  1389  101460 135490    0.749 0.0287  0.0103  0.111 
##  9 06009 Cala…  5166   527   258   36932  45057    0.820 0.0117  0.00573 0.115 
## 10 06109 Tuol…  6385   593   924   43565  53899    0.808 0.0110  0.0171  0.118 
## # … with 48 more rows, and 1 more variable: diff <dbl>
```

[Trinity county](https://en.wikipedia.org/wiki/Trinity_County,_California) has the lowest percent Hispanic with 7.19.

By default, `arrange()` sorts in ascending order. We can sort by a variable in descending order by using the `desc()` function on the variable we want to sort by. For example, to sort the dataframe by *phisp* in descending order we use


```r
arrange(counties1, desc(phisp))
```

```
## # A tibble: 58 x 12
##    GEOID name    hisp  nhasn  nhblk nhwhite  tpopr pnhwhite pnhasn  pnhblk phisp
##    <chr> <chr>  <dbl>  <dbl>  <dbl>   <dbl>  <dbl>    <dbl>  <dbl>   <dbl> <dbl>
##  1 06025 Impe… 1.50e5   2263   4109   20372 1.80e5    0.113 0.0126 0.0228  0.834
##  2 06107 Tula… 2.92e5  14622   5973  135372 4.59e5    0.295 0.0319 0.0130  0.636
##  3 06069 San … 3.46e4   1564    437   20872 5.87e4    0.356 0.0267 0.00745 0.589
##  4 06011 Colu… 1.25e4    328    186    7800 2.15e4    0.363 0.0153 0.00866 0.584
##  5 06047 Merc… 1.56e5  19593   8007   77092 2.67e5    0.288 0.0733 0.0299  0.582
##  6 06053 Mont… 2.51e5  24213  10621  132600 4.33e5    0.306 0.0559 0.0245  0.579
##  7 06039 Made… 8.79e4   3035   4753   54145 1.54e5    0.351 0.0197 0.0308  0.569
##  8 06031 King… 8.07e4   5463   8916   49728 1.50e5    0.331 0.0364 0.0594  0.537
##  9 06019 Fres… 5.09e5  96128  45217  293677 9.72e5    0.302 0.0989 0.0465  0.524
## 10 06071 San … 1.11e6 142802 168985  632557 2.12e6    0.298 0.0673 0.0797  0.523
## # … with 48 more rows, and 1 more variable: diff <dbl>
```
…
