Lab 7: Neighborhood Segregation
…
The group_by() function tells R that all future functions on large.tracts will be grouped according to the variable NAME, which is the metro name. We use the sum() function within the mutate() function to sum up, for example, the non-Hispanic white population nhwhite for each metro. We name this variable nhwhitec. If you type in View(large.tracts), you should find that the variable nhwhitec provides the same value for all tracts within the same metro. We do this for all the other race/ethnic groups.

The function ungroup() at the end of the code tells R to stop the grouping. For example, we see the results after grouping by NAME

large.tracts %>%
    group_by(NAME)

## Simple feature collection with 5573 features and 27 fields
## geometry type:  MULTIPOLYGON
## dimension:      XY
## bbox:           xmin: -123.0241 ymin: 32.53416 xmax: -116.0811 ymax: 39.31645
## epsg (SRID):    4269
## proj4string:    +proj=longlat +ellps=GRS80 +towgs84=0,0,0,0,0,0,0 +no_defs
## # A tibble: 5,573 x 28
## # Groups:   NAME [6]
##    GEOID.x  tpop tpopr pnhwhite pnhasn  pnhblk  phisp nhwhite nhasn nhblk  hisp
##  * <chr>   <dbl> <dbl>    <dbl>  <dbl>   <dbl>  <dbl>   <dbl> <dbl> <dbl> <dbl>
##  1 060014…  2991  2991    0.692 0.162  0.0281  0.0378    2070   484    84   113
##  2 060014…  1997  1997    0.713 0.0981 0.00901 0.0886    1424   196    18   177
##  3 060014…  5123  5123    0.670 0.0976 0.0941  0.0752    3431   500   482   385
##  4 060014…  3991  3991    0.658 0.121  0.0596  0.0945    2625   484   238   377
##  5 060014…  3944  3944    0.534 0.0558 0.241   0.103     2105   220   951   407
##  6 060014…  1635  1635    0.446 0.0966 0.246   0.0856     729   158   402   140
##  7 060014…  4837  4837    0.375 0.0413 0.347   0.177     1816   200  1679   857
##  8 060014…  3796  3796    0.384 0.132  0.321   0.111     1457   501  1217   421
##  9 060014…  2394  2394    0.426 0.0614 0.324   0.121     1019   147   775   289
## 10 060014…  6247  6247    0.293 0.0298 0.366   0.198     1829   186  2286  1237
## # … with 5,563 more rows, and 17 more variables: nonwhite <dbl>,
## #   pnonwhite <dbl>, oth <dbl>, poth <dbl>, CSAFP <chr>, CBSAFP <chr>,
## #   GEOID.y <chr>, NAME <chr>, LSAD <chr>, geometry <MULTIPOLYGON [°]>,
## #   nhwhitec <dbl>, nonwhitec <dbl>, nhasnc <dbl>, nhblkc <dbl>, othc <dbl>,
## #   hispc <dbl>, tpoprc <dbl>

that the tibble large.tracts is grouped (Groups: NAME [6]). Use ungroup() to, well, ungroup the tibble.

large.tracts %>%
    group_by(NAME) %>%
    ungroup()

## Simple feature collection with 5573 features and 27 fields
## geometry type:  MULTIPOLYGON
## dimension:      XY
## bbox:           xmin: -123.0241 ymin: 32.53416 xmax: -116.0811 ymax: 39.31645
## epsg (SRID):    4269
## proj4string:    +proj=longlat +ellps=GRS80 +towgs84=0,0,0,0,0,0,0 +no_defs
## # A tibble: 5,573 x 28
##    GEOID.x  tpop tpopr pnhwhite pnhasn  pnhblk  phisp nhwhite nhasn nhblk  hisp
##  * <chr>   <dbl> <dbl>    <dbl>  <dbl>   <dbl>  <dbl>   <dbl> <dbl> <dbl> <dbl>
##  1 060014…  2991  2991    0.692 0.162  0.0281  0.0378    2070   484    84   113
##  2 060014…  1997  1997    0.713 0.0981 0.00901 0.0886    1424   196    18   177
##  3 060014…  5123  5123    0.670 0.0976 0.0941  0.0752    3431   500   482   385
##  4 060014…  3991  3991    0.658 0.121  0.0596  0.0945    2625   484   238   377
##  5 060014…  3944  3944    0.534 0.0558 0.241   0.103     2105   220   951   407
##  6 060014…  1635  1635    0.446 0.0966 0.246   0.0856     729   158   402   140
##  7 060014…  4837  4837    0.375 0.0413 0.347   0.177     1816   200  1679   857
##  8 060014…  3796  3796    0.384 0.132  0.321   0.111     1457   501  1217   421
##  9 060014…  2394  2394    0.426 0.0614 0.324   0.121     1019   147   775   289
## 10 060014…  6247  6247    0.293 0.0298 0.366   0.198     1829   186  2286  1237
## # … with 5,563 more rows, and 17 more variables: nonwhite <dbl>,
## #   pnonwhite <dbl>, oth <dbl>, poth <dbl>, CSAFP <chr>, CBSAFP <chr>,
## #   GEOID.y <chr>, NAME <chr>, LSAD <chr>, geometry <MULTIPOLYGON [°]>,
## #   nhwhitec <dbl>, nonwhitec <dbl>, nhasnc <dbl>, nhblkc <dbl>, othc <dbl>,
## #   hispc <dbl>, tpoprc <dbl>
…
