Lab 8: Segregation and Gentrification
…
The group_by() function tells R that all future functions on large.tracts will be grouped according to the variable NAME, which is the city name. We use the sum() function within the mutate() function to sum up, for example, the non-Hispanic white population nhwhite for each city. We name this variable nhwhitec. If you type in View(large.tracts), you should find that the variable nhwhitec provides the same value for all tracts within the same city. We do this for all the other race/ethnic groups.

The function ungroup() at the end of the code tells R to stop the grouping. For example, we see the results after grouping by NAME

large.tracts %>%
    group_by(NAME)

## Simple feature collection with 825 features and 21 fields
## geometry type:  MULTIPOLYGON
## dimension:      XY
## bbox:           xmin: -123.0139 ymin: 32.53471 xmax: -116.9057 ymax: 37.86334
## geographic CRS: NAD83
## # A tibble: 825 x 22
## # Groups:   NAME [4]
##    GEOID.x   tpop pnhwhite19 pnhasn19 pnhblk19 phisp19 nhwhite nhasn nhblk  hisp
##    <chr>    <dbl>      <dbl>    <dbl>    <dbl>   <dbl>   <dbl> <dbl> <dbl> <dbl>
##  1 0607502…  4597      42.1     13.2     2.41    39.1     1937   606   111  1797
##  2 0607502…  4523      59.1     12.0     2.06    19.1     2675   542    93   864
##  3 0608551…  3020       9.11    40.6     4.11    37.5      275  1226   124  1134
##  4 0608550…  4373       2.72    35.3     1.14    59.5      119  1544    50  2604
##  5 0607300…  5271      53.1     36.1     0.247    5.92    2799  1902    13   312
##  6 0607300…  3726      61.8      2.44    1.29    32.0     2302    91    48  1191
##  7 0607300…  3344      66.4      3.71    3.23    23.3     2220   124   108   780
##  8 0607300…  2659      83.2      1.81    0.564   12.3     2211    48    15   328
##  9 0601900…  4750      19.2      2.74   13.4     63.9      911   130   637  3035
## 10 0601900…  3046      13.6     16.3     6.17    62.2      413   498   188  1894
## # … with 815 more rows, and 12 more variables: medinc19 <dbl>, rent19 <dbl>,
## #   houseval19 <dbl>, pcol19 <dbl>, GEOID.y <chr>, NAME <chr>,
## #   geometry <MULTIPOLYGON [°]>, nhwhitec <dbl>, nhasnc <dbl>, nhblkc <dbl>,
## #   hispc <dbl>, tpopc <dbl>

that the tibble large.tracts is grouped (Groups: NAME [4]). Use ungroup() to, well, ungroup the tibble.

large.tracts %>%
    group_by(NAME) %>%
    ungroup()

## Simple feature collection with 825 features and 21 fields
## geometry type:  MULTIPOLYGON
## dimension:      XY
## bbox:           xmin: -123.0139 ymin: 32.53471 xmax: -116.9057 ymax: 37.86334
## geographic CRS: NAD83
## # A tibble: 825 x 22
##    GEOID.x   tpop pnhwhite19 pnhasn19 pnhblk19 phisp19 nhwhite nhasn nhblk  hisp
##    <chr>    <dbl>      <dbl>    <dbl>    <dbl>   <dbl>   <dbl> <dbl> <dbl> <dbl>
##  1 0607502…  4597      42.1     13.2     2.41    39.1     1937   606   111  1797
##  2 0607502…  4523      59.1     12.0     2.06    19.1     2675   542    93   864
##  3 0608551…  3020       9.11    40.6     4.11    37.5      275  1226   124  1134
##  4 0608550…  4373       2.72    35.3     1.14    59.5      119  1544    50  2604
##  5 0607300…  5271      53.1     36.1     0.247    5.92    2799  1902    13   312
##  6 0607300…  3726      61.8      2.44    1.29    32.0     2302    91    48  1191
##  7 0607300…  3344      66.4      3.71    3.23    23.3     2220   124   108   780
##  8 0607300…  2659      83.2      1.81    0.564   12.3     2211    48    15   328
##  9 0601900…  4750      19.2      2.74   13.4     63.9      911   130   637  3035
## 10 0601900…  3046      13.6     16.3     6.17    62.2      413   498   188  1894
## # … with 815 more rows, and 12 more variables: medinc19 <dbl>, rent19 <dbl>,
## #   houseval19 <dbl>, pcol19 <dbl>, GEOID.y <chr>, NAME <chr>,
## #   geometry <MULTIPOLYGON [°]>, nhwhitec <dbl>, nhasnc <dbl>, nhblkc <dbl>,
## #   hispc <dbl>, tpopc <dbl>
…
