…
In order to combine variables into an index, we need to standardize them, which is described in section 4.3 in the handout.  We do this to get the variables onto the same scale.  That is, variables are measured across multiple measurement scales, from percentages such as percent non-Hispanic black to ratios such as population density, and we need to get these variables on the same scale.  A common approach to standardizing a variable is to calculate its z-score.  The z-score is a measure of distance from the mean, in this case the mean of all tracts in an area.  So, after standardization, the variables will have the same units, specifically units of standard deviations.

Let's calculate the z-score for the variable *hsplc1* (% of households with no more than 1 occupant per room) using equation 1 in Handout 5.  Relying on our compadre `mutate()`, we can create a variable named *hsplc1z* that subtracts the total mean of *hsplc1* from each tract's value on *hsplc1* and then divide by the standard deviation of *hsplc1*.  The ROI uses the California mean, but read the section "Standardize variables using the appropriate comparison mean" in the Handout to understand the potential issues with using the statewide mean. 



```r
roi.tract.data %>%
  mutate(hsplc1z = (hsplc1-mean(hsplc1, na.rm=TRUE))/sd(hsplc1, na.rm=TRUE)) %>%
  select(tract,hsplc1z)
```

```
## # A tibble: 8,035 x 2
##         tract hsplc1z
##         <dbl>   <dbl>
##  1 6001400100   0.867
##  2 6001400200   0.928
##  3 6001400300   0.928
##  4 6001400400   0.874
##  5 6001400500   0.828
##  6 6001400600   0.846
##  7 6001400700   0.422
##  8 6001400800   0.784
##  9 6001400900   0.664
## 10 6001401000   0.754
## # … with 8,025 more rows
```
…
