…
```r
setwd("file path to your PolicyMap csvs")
```

3. Next, bring in the csv files using the function `read_csv()`.  Note in the code below that the file names in parentheses will differ from yours, but *file1* contains the Loan to Income ratio data, *file2* contains the Opportunity Zone data, *file3* contains percent Hispanic, *file4* contains percent black, and *file5* contains median household income.


```r
file1 <- read_csv("PolicyMap Data 2018-10-06 0004UTC.csv")
file1
```

```
## # A tibble: 113 x 4
##    `Census Tract`  `FIPS Code` `Formatted FIPS` `Median leverage ratio for all …
##    <chr>                 <dbl> <chr>            <chr>                           
##  1 06001409000, CA  6001409000 06001409000      3.19                            
##  2 06001401700, CA  6001401700 06001401700      3.07                            
##  3 06001408100, CA  6001408100 06001408100      3.11                            
##  4 06001410000, CA  6001410000 06001410000      3.51                            
##  5 06001400100, CA  6001400100 06001400100      3.01                            
##  6 06001981900, CA  6001981900 06001981900      N/A                             
##  7 06001404600, CA  6001404600 06001404600      3.31                            
##  8 06001409900, CA  6001409900 06001409900      3.37                            
##  9 06001404400, CA  6001404400 06001404400      3.04                            
## 10 06001404502, CA  6001404502 06001404502      3.1                             
## # … with 103 more rows
```

```r
file2 <- read_csv("PolicyMap Data 2018-10-06 0007UTC.csv")
file2
```

```
## # A tibble: 113 x 4
##    `Census Tract`  `FIPS Code` `Formatted FIPS` `Designated Qualified Opportuni…
##    <chr>                 <dbl> <chr>            <chr>                           
##  1 06001409000, CA  6001409000 06001409000      Designated Qualified Opportunit…
##  2 06001401700, CA  6001401700 06001401700      Designated Qualified Opportunit…
##  3 06001408100, CA  6001408100 06001408100      Not Designated                  
##  4 06001410000, CA  6001410000 06001410000      Not Designated                  
##  5 06001400100, CA  6001400100 06001400100      Not Designated                  
##  6 06001981900, CA  6001981900 06001981900      Not Designated                  
##  7 06001404600, CA  6001404600 06001404600      Not Designated                  
##  8 06001409900, CA  6001409900 06001409900      Not Designated                  
##  9 06001404400, CA  6001404400 06001404400      Not Designated                  
## 10 06001404502, CA  6001404502 06001404502      Not Designated                  
## # … with 103 more rows
```

```r
file3 <- read_csv("PolicyMap Data 2018-10-07 2245UTC.csv")
file3
```

```
## # A tibble: 113 x 4
##    `Census Tract`  `FIPS Code` `Formatted FIPS` `Estimated percent of all peopl…
##    <chr>                 <dbl> <chr>                                       <dbl>
##  1 06001409000, CA  6001409000 06001409000                                 53.2 
##  2 06001401700, CA  6001401700 06001401700                                 31.4 
##  3 06001408100, CA  6001408100 06001408100                                 11.2 
##  4 06001410000, CA  6001410000 06001410000                                  6.36
##  5 06001400100, CA  6001400100 06001400100                                  2.75
##  6 06001981900, CA  6001981900 06001981900                                  0   
##  7 06001404600, CA  6001404600 06001404600                                  3.77
##  8 06001409900, CA  6001409900 06001409900                                 14.7 
##  9 06001404400, CA  6001404400 06001404400                                  6.62
## 10 06001404502, CA  6001404502 06001404502                                  8.13
## # … with 103 more rows
```

```r
file4 <- read_csv("PolicyMap Data 2018-10-07 2223UTC.csv")
file4
```

```
## # A tibble: 113 x 4
##    `Census Tract`  `FIPS Code` `Formatted FIPS` `Estimated percent of all peopl…
##    <chr>                 <dbl> <chr>                                       <dbl>
##  1 06001409000, CA  6001409000 06001409000                                 34.9 
##  2 06001401700, CA  6001401700 06001401700                                 24.0 
##  3 06001408100, CA  6001408100 06001408100                                 22.4 
##  4 06001410000, CA  6001410000 06001410000                                 44.3 
##  5 06001400100, CA  6001400100 06001400100                                  3.05
##  6 06001981900, CA  6001981900 06001981900                                  0   
##  7 06001404600, CA  6001404600 06001404600                                  4.65
##  8 06001409900, CA  6001409900 06001409900                                 46.9 
##  9 06001404400, CA  6001404400 06001404400                                  2.04
## 10 06001404502, CA  6001404502 06001404502                                  4.9 
## # … with 103 more rows
```

```r
file5 <- read_csv("PolicyMap Data 2018-10-07 2224UTC.csv")
file5
```

```
## # A tibble: 113 x 4
##    `Census Tract`  `FIPS Code` `Formatted FIPS` `Estimated typical (median) inc…
##    <chr>                 <dbl> <chr>                                       <dbl>
##  1 06001409000, CA  6001409000 06001409000                                 44125
##  2 06001401700, CA  6001401700 06001401700                                 66308
##  3 06001408100, CA  6001408100 06001408100                                103670
##  4 06001410000, CA  6001410000 06001410000                                107083
##  5 06001400100, CA  6001400100 06001400100                                177417
##  6 06001981900, CA  6001981900 06001981900                                105714
##  7 06001404600, CA  6001404600 06001404600                                163322
##  8 06001409900, CA  6001409900 06001409900                                 97689
##  9 06001404400, CA  6001404400 06001404400                                150074
## 10 06001404502, CA  6001404502 06001404502                                133068
## # … with 103 more rows
```

4. Using the function `left_join()`, we then merge all the files together using the Census tract ID *FIPS Code* (the variables *Census Tract* or *Formatted FIPS* also work as IDs).  We save the merged files into a tibble named *oakland*.


```r
oakland <- file1 %>%
        left_join(file2, by ="FIPS Code") %>%
        left_join(file3, by ="FIPS Code") %>%
        left_join(file4, by ="FIPS Code") %>%
        left_join(file5, by ="FIPS Code")
oakland
```

```
## # A tibble: 113 x 16
##    `Census Tract.x` `FIPS Code` `Formatted FIPS… `Median leverag…
##    <chr>                  <dbl> <chr>            <chr>           
##  1 06001409000, CA   6001409000 06001409000      3.19            
##  2 06001401700, CA   6001401700 06001401700      3.07            
##  3 06001408100, CA   6001408100 06001408100      3.11            
##  4 06001410000, CA   6001410000 06001410000      3.51            
##  5 06001400100, CA   6001400100 06001400100      3.01            
##  6 06001981900, CA   6001981900 06001981900      N/A             
##  7 06001404600, CA   6001404600 06001404600      3.31            
##  8 06001409900, CA   6001409900 06001409900      3.37            
##  9 06001404400, CA   6001404400 06001404400      3.04            
## 10 06001404502, CA   6001404502 06001404502      3.1             
## # … with 103 more rows, and 12 more variables: `Census Tract.y` <chr>,
## #   `Formatted FIPS.y` <chr>, `Designated Qualified Opportunity Zones, as of
## #   2018.` <chr>, `Census Tract.x.x` <chr>, `Formatted FIPS.x.x` <chr>,
## #   `Estimated percent of all people who were Hispanic between 2012-2` <dbl>,
## #   `Census Tract.y.y` <chr>, `Formatted FIPS.y.y` <chr>, `Estimated percent of
## #   all people who were Black between 2012-2016` <dbl>, `Census Tract` <chr>,
## #   `Formatted FIPS` <chr>, `Estimated typical (median) income of a household
## #   between 2012-20` <dbl>
```
…
What did we just do? 

* `rename()` renames some of the variables such that labels are easier to process in R (e.g. no spaces, concise).
* The `select()` function keeps only the necessary variables to reduce the clutter.
* R read the variable *Median leverage ratio for all loans in 2016* as a character and not a numeric, which is incorrect.  This happened because missing values are designated as "N/A" in PolicyMap not "NA", which is how R designates missing values.  In order to get the variable into its proper numeric form, convert "N/A" to "NA". The `replace()` function tells R to replace values in *levratio* that are equal to "N/A" to the value "NA". The function `as.double()` then tells R to convert the character variable *levratio* to a double. 

The tibble should now look like the following


```r
oakland
```

```
## # A tibble: 113 x 6
##    levratio oppzone                              phisp  pblk medincome      fips
##       <dbl> <chr>                                <dbl> <dbl>     <dbl>     <dbl>
##  1     3.19 Designated Qualified Opportunity Zo… 53.2  34.9      44125    6.00e9
##  2     3.07 Designated Qualified Opportunity Zo… 31.4  24.0      66308    6.00e9
##  3     3.11 Not Designated                       11.2  22.4     103670    6.00e9
##  4     3.51 Not Designated                        6.36 44.3     107083    6.00e9
##  5     3.01 Not Designated                        2.75  3.05    177417    6.00e9
##  6    NA    Not Designated                        0     0       105714    6.00e9
##  7     3.31 Not Designated                        3.77  4.65    163322    6.00e9
##  8     3.37 Not Designated                       14.7  46.9      97689    6.00e9
##  9     3.04 Not Designated                        6.62  2.04    150074    6.00e9
## 10     3.1  Not Designated                        8.13  4.9     133068    6.00e9
## # … with 103 more rows
```
…
